{
	"$schema": "https://schemas.wp.org/trunk/block.json",
	"apiVersion": 2,
	"name": "wa/accordion-item",
	"title": "Accordion Item",
	"parent": [ "wa/accordion" ],
	"category": "text",
	"description": "Content inside accordion block",
	"keywords": [ "wa", "collapse" ],
	"textdomain": "default",
	"attributes": {
        "anchor": {
            "type": "string",
            "default": ""
        },
		"parentId": {
			"type": "string"
		},
		"allowMultipleOpen": {
			"type": "boolean"
		},
		"startCollapsed": {
			"type": "boolean",
			"default": false
		},
		"heading": {
			"type": "string",
			"default": ""
		},
		"templateLock": {
			"type": [ "string", "boolean" ],
			"enum": [ "all", "insert", false ]
		}
	},
	"supports": {
		"anchor": true,
		"align": false,
		"color": false,
		"typography": false,
		"reusable": false
	},
	"editorStyle": "wa-block-accordion-item-editor",
	"style": "wa-block-accordion-item"
}
