{
	"$schema": "https://schemas.wp.org/trunk/block.json",
	"apiVersion": 2,
	"name": "wa/executive-team-wrapper",
    "title": "Executive Team",
    "description": "Executive team information",
    "category": "text",
	"keywords": [ "wa" ],
	"textdomain": "default",
	"attributes": {
		"allowMultipleOpen": {
			"type": "boolean",
			"default": false
		},
		"backgroundColor": {
			"type": "string",
			"default": false
		},
		"verticalAlignment": {
			"type": "string"
		}
	},
	"supports": {
        "align": ["none", "full"]
	},
	"editorStyle": "wp-block-wa-executive-team-editor",
	"style": "wp-block-wa-executive-team"
}
