{
	"$schema": "https://schemas.wp.org/trunk/block.json",
	"apiVersion": 2,
	"name": "wa/media-text",
	"title": "Info Block",
	"category": "design",
	"description": "",
	"keywords": [ "wa", "image", "media" ],
	"textdomain": "default",
	"attributes": {
        "anchor": {
            "type": "string",
            "default": ""
        },
		"showArrowBorder": {
	        "type": "boolean",
	        "default": false
		},
		"imageSize": {
			"type": "integer",
			"default": 50
		},
		"focalPoint": {
			"type": "object",
			"default": {"x": 0.5, "y": 0.5}
		},
		"backgroundAllowTypeSelector": {
			"type": "string",
			"default": false
		},
		"allowTextTypeSelector": {
			"type": "string",
			"default": false
		},
		"allowBlockShapeSelector": {
			"type": "string",
			"default": false
		},
		"backgroundType": {
			"type": "string",
			"default": "color"
		},
		"backgroundColor": {
			"type": "string",
			"default": false
		},
		
		"fontSize": {
			"type": "string",
			"default": "medium"
		},
		
		"linkDestination": {
			"type": "string"
		},
		"linkTarget": {
			"type": "string",
			"source": "attribute",
			"selector": "figure a",
			"attribute": "target"
		},
		"href": {
			"type": "string",
			"source": "attribute",
			"selector": "figure a",
			"attribute": "href"
		},
		"rel": {
			"type": "string",
			"source": "attribute",
			"selector": "figure a",
			"attribute": "rel"
		},
		"linkClass": {
			"type": "string",
			"source": "attribute",
			"selector": "figure a",
			"attribute": "class"
		},

	    "borderCircle": {
			"type": "boolean",
			"default": false
		},

	    "imageClass": {
			"type": "string",
			"default": false
		},
		"textClass": {
			"type": "string",
			"default": false
		},

	    "textSize": {
			"type": "string",
			"default": "normal"
		},
		
	    "align": {
			"type": "string",
			"default": "full"
		},
		"verticalAlignment": {
			"type": "string",
			"default": "center"
		},

	    "allowCrop": {
			"type": "boolean",
			"default": true
		},

	    "isStackedOnMobile": {
			"type": "boolean",
			"default": true
		},

		"verticalPadding": {
			"type": "string",
			"default": "medium"
	    }
	},
    "usesContext": [ "postId", "postType" ],
	"supports": {
		"anchor": true,
		"className": true,
		"customClassName": false,
		"align": ["full", "none"],
		"color": false,
		"typography": false,
		"reusable": false
	},
	"editorStyle": "wp-block-wa-media-text-editor",
	"style": "wp-block-wa-media-text media-text"
}
