{
	"$schema": "https://schemas.wp.org/trunk/block.json",
	"apiVersion": 2,
	"name": "wa/testimonial",
	"title": "Testimonial",
	"category": "common",
	"description": "Show how your users love your products and what saying.",
	"keywords": [ "wa", "blockquote" ],
	"textdomain": "default",
	"attributes": {
		"icon": {
			"type": "string",
			"default": { "group": "fas", "key": "fa-quote-left" }
		},

		"photo": {
			"type": "number",
			"default": "",
		},
		"photoTag": {
			"type": "string",
			"default": "",
		},
		"photoSizes": {
			"type": "object",
			"default": "",
		},
		"photoSize": {
			"type": "string",
			"default": "thumbnail",
		},

		"name": {
			"type": "array",
			"source": "children",
			"selector": ".watheme-testimonial-name",
			"default": [
				{
					"props": {
						"children": [ "Katrina Craft" ]
					},
					"type": "strong"
				}
			]
		},

		"source": {
			"type": "array",
			"source": "children",
			"selector": ".watheme-testimonial-source",
			"default": "Designer"
		}
	},
	"supports": {
        "html": false,
        "className": false,
        "anchor": true,
		"align": true,
		"alignWide": true,
		"color": false,
		"typography": false,
		"reusable": false
	},
	"editorStyle": "wa-posts-preview-editor",
	"style": "wa-posts-preview"
}
